Entity Symbol	Entity type	Entity Symbol	Sources(; separated)	Level4	Level3	Level2	Model_Of_Inheritance	Phenotypes	Omim	Orphanet	HPO	Publications	Description	Flagged	GEL_Status	UserRatings_Green_amber_red	version	ready	Mode of pathogenicity	EnsemblId(GRch37)	EnsemblId(GRch38)	HGNC	Position Chromosome	Position GRCh37 Start	Position GRCh37 End	Position GRCh38 Start	Position GRCh38 End	STR Repeated Sequence	STR Normal Repeats	STR Pathogenic Repeats	Region Haploinsufficiency Score	Region Triplosensitivity Score	Region Required Overlap Percentage	Region Variant Type	Region Verbose Name
ABCC5-AS1	gene	ABCC5-AS1	Expert Review Green	Panel One	asdf 24	asdfasdf 223	MITOCHONDRIAL	56h	asdf;asdf;asdfasd	adf;jwoi	adf;asdfjwo	5hh6		FALSE	4	0;0;0	1.34	FALSE	Other
A1CF	gene	A1CF	Expert Review Green	Panel One	asdf 24	asdfasdf 223	MITOCHONDRIAL	57h	asdf;asdf;asdfasd	adf;jwoi	adf;asdfjwo	5hh6		FALSE	4	0;0;0	1.34	FALSE	Other
A1CF	gene	A1CF	Expert Review Green	Panel One	asdf 24	asdfasdf 223	"MONOALLELIC, autosomal or pseudoautosomal, maternally imprinted (paternal allele expressed)"	wef	asdf;asdf;asdfasd	adf;jwoi	adf;asdfjwo	qdf		FALSE	2	0;0;0	1.34	FALSE	Loss-of-function variants (as defined in pop up message) DO NOT cause this phenotype - please provide details in the comments
STR_1	str	STR_1	Illumina TruGenome Clinical Sequencing Services	TestPanel	Parenchymal brain disorders	Neurology and neurodevelopmental disorders	"MONOALLELIC, autosomal or pseudoautosomal, maternally imprinted (paternal allele expressed)"							FALSE	1	0;0;0	1.46	FALSE					1	12	20	12	20	AT	10	889
STR_2	str	STR_2	Illumina TruGenome Clinical Sequencing Services	TestPanel	Parenchymal brain disorders	Neurology and neurodevelopmental disorders	"MONOALLELIC, autosomal or pseudoautosomal, maternally imprinted (paternal allele expressed)"							FALSE	1	0;0;0	1.46	FALSE					1	12	20	12	20	AT	10	889
STR_3	str	STR_3	Illumina TruGenome Clinical Sequencing Services	TestPanel	Parenchymal brain disorders	Neurology and neurodevelopmental disorders	"MONOALLELIC, autosomal or pseudoautosomal, maternally imprinted (paternal allele expressed)"							FALSE	1	0;0;0	1.46	FALSE					1	12	20	12	20	AT	10	889
ISCA-37478	region		Other	Panel One	Parenchymal brain disorders	Neurology and neurodevelopmental disorders	"BOTH monoallelic and biallelic, autosomal or pseudoautosomal"	ID						FALSE	1	0;0;0	1.46	FALSE					15			341468368	341468388				3	0	10	cnv_gain	Verbose name
